Ciencia de datos geográficos
…
```
## Simple feature collection with 27507 features and 14 fields
## Geometry type: POINT
## Dimension:     XY
## Bounding box:  xmin: -43.70591 ymin: -23.07284 xmax: -43.1044 ymax: -22.74969
## Geodetic CRS:  WGS 84
## # A tibble: 27,507 × 15
##         id name   host_id host_name neighbourhood room_type price minimum_nights
##  *   <dbl> <chr>    <dbl> <chr>     <chr>         <chr>     <dbl>          <dbl>
##  1 1.05e 7 Sobra…  5.39e7 Quiá      Laranjeiras   Entire h…   581              1
##  2 5.39e 7 Quadr…  3.34e8 Lucas     Copacabana    Entire h…   898              5
##  3 7.83e17 Leme,…  4.92e8 Felipe    Leme          Entire h…   720              1
##  4 7.04e17 Suíte…  2.04e7 Júlio Ce… Botafogo      Private …   599              4
##  5 7.83e17 Apart…  3.02e8 Laís      Laranjeiras   Entire h…   240              3
##  6 2.38e 7 Vamos…  8.66e7 Mauro     Barra da Tij… Entire h…   494              3
##  7 2.16e 7 Copac…  5.53e7 Ronaldo   Copacabana    Entire h…   657              2
##  8 7.85e17 Leblo…  4.92e8 Licia     Leblon        Entire h…  3509              4
##  9 4.79e 7 Diver…  3.86e8 Wagner    Ipanema       Entire h…  1300              4
## 10 7.83e17 apart…  6.36e6 Francisco Centro        Entire h…   232              3
## # ℹ 27,497 more rows
## # ℹ 7 more variables: number_of_reviews <dbl>, last_review <date>,
## #   reviews_per_month <dbl>, calculated_host_listings_count <dbl>,
## #   availability_365 <dbl>, number_of_reviews_ltm <dbl>, geometry <POINT [°]>
```
…
