Ciencia de datos geograficos
…
Para convertir el `csv` en un dato geográfico tendremos que usar la función `st_as_sf`, informando cuales columnas teienen la información de coordenadas:

```r
# transformando en geografico
(airbnb <- st_as_sf(datos, coords = c("longitude", "latitude") ))
```

```
## Simple feature collection with 27507 features and 14 fields
## Geometry type: POINT
## Dimension:     XY
## Bounding box:  xmin: -43.70591 ymin: -23.07284 xmax: -43.1044 ymax: -22.74969
## CRS:           NA
## # A tibble: 27,507 × 15
##         id name   host_id host_name neighbourhood room_type price minimum_nights
##      <dbl> <chr>    <dbl> <chr>     <chr>         <chr>     <dbl>          <dbl>
##  1 1.05e 7 Sobra…  5.39e7 Quiá      Laranjeiras   Entire h…   581              1
##  2 5.39e 7 Quadr…  3.34e8 Lucas     Copacabana    Entire h…   898              5
##  3 7.83e17 Leme,…  4.92e8 Felipe    Leme          Entire h…   720              1
##  4 7.04e17 Suíte…  2.04e7 Júlio Ce… Botafogo      Private …   599              4
##  5 7.83e17 Apart…  3.02e8 Laís      Laranjeiras   Entire h…   240              3
##  6 2.38e 7 Vamos…  8.66e7 Mauro     Barra da Tij… Entire h…   494              3
##  7 2.16e 7 Copac…  5.53e7 Ronaldo   Copacabana    Entire h…   657              2
##  8 7.85e17 Leblo…  4.92e8 Licia     Leblon        Entire h…  3509              4
##  9 4.79e 7 Diver…  3.86e8 Wagner    Ipanema       Entire h…  1300              4
## 10 7.83e17 apart…  6.36e6 Francisco Centro        Entire h…   232              3
## # ℹ 27,497 more rows
## # ℹ 7 more variables: number_of_reviews <dbl>, last_review <date>,
## #   reviews_per_month <dbl>, calculated_host_listings_count <dbl>,
## #   availability_365 <dbl>, number_of_reviews_ltm <dbl>, geometry <POINT>
```
…
```
## Simple feature collection with 152 features and 2 fields
## Geometry type: GEOMETRY
## Dimension:     XY
## Bounding box:  xmin: -43.70591 ymin: -23.07284 xmax: -43.1044 ymax: -22.74969
## CRS:           NA
## # A tibble: 152 × 3
##    neighbourhood      media                                             geometry
##    <chr>              <dbl>                                           <GEOMETRY>
##  1 Abolição            466  MULTIPOINT ((-43.29834 -22.88491), (-43.29698 -22.8…
##  2 Acari               250                           POINT (-43.33356 -22.81439)
##  3 Alto da Boa Vista  1096. MULTIPOINT ((-43.29683 -22.96931), (-43.29487 -22.9…
##  4 Anchieta           2776. MULTIPOINT ((-43.40549 -22.82838), (-43.38878 -22.8…
##  5 Andaraí             406. MULTIPOINT ((-43.25415 -22.93194), (-43.25171 -22.9…
##  6 Anil                561. MULTIPOINT ((-43.34908 -22.95531), (-43.34879 -22.9…
##  7 Bancários           239. MULTIPOINT ((-43.18489 -22.78932), (-43.17678 -22.8…
##  8 Bangu               459. MULTIPOINT ((-43.51179 -22.86318), (-43.48249 -22.8…
##  9 Barra da Tijuca     989. MULTIPOINT ((-43.44984 -23.01887), (-43.44659 -23.0…
## 10 Barra de Guaratiba  650. MULTIPOINT ((-43.56972 -23.07267), (-43.56861 -23.0…
## # ℹ 142 more rows
```
…
Para mejorar un poco la presentación, voy a usar al final la función `arrange()` y `desc()`para ordenar los valores de forma decreciente, así tendremos los valores más elevados primero:

```r
airbnb %>% group_by(neighbourhood) %>% summarise(media = mean(price)) %>% arrange(desc(media))
```

```
## Simple feature collection with 152 features and 2 fields
## Geometry type: GEOMETRY
## Dimension:     XY
## Bounding box:  xmin: -43.70591 ymin: -23.07284 xmax: -43.1044 ymax: -22.74969
## CRS:           NA
## # A tibble: 152 × 3
##    neighbourhood          media                                         geometry
##    <chr>                  <dbl>                                       <GEOMETRY>
##  1 Anchieta               2776. MULTIPOINT ((-43.40549 -22.82838), (-43.38878 -…
##  2 Joá                    1764. MULTIPOINT ((-43.29633 -23.01625), (-43.29617 -…
##  3 Ricardo de Albuquerque 1341. MULTIPOINT ((-43.40667 -22.84112), (-43.40437 -…
##  4 Lagoa                  1230. MULTIPOINT ((-43.22564 -22.97475), (-43.22555 -…
##  5 Leblon                 1218. MULTIPOINT ((-43.23537 -22.98579), (-43.23481 -…
##  6 Ipanema                1212. MULTIPOINT ((-43.21555 -22.98483), (-43.21546 -…
##  7 São Conrado            1176. MULTIPOINT ((-43.27564 -23.00215), (-43.27528 -…
##  8 Caju                   1123                       POINT (-43.21316 -22.89588)
##  9 Itanhangá              1104. MULTIPOINT ((-43.33391 -22.97898), (-43.33367 -…
## 10 Alto da Boa Vista      1096. MULTIPOINT ((-43.29683 -22.96931), (-43.29487 -…
## # ℹ 142 more rows
```
…
